%YAML 1.1
%TAG !u! tag:unity3d.com,2011:
--- !u!1045 &1
EditorBuildSettings:
  m_ObjectHideFlags: 0
  serializedVersion: 2
  m_Scenes:
  - enabled: 1
    path: Assets/Scenes/MainMenu.unity
    guid: a68f8f22a96a214479fb220b9a66684d
  - enabled: 1
    path: Assets/Scenes/Test.unity
    guid: 6f96dfc91e859c54da4e131dd561021c
  m_configObjects:
    com.unity.input.settings: {fileID: 11400000, guid: d70559669023fb841acb22f3cfbdb797,
      type: 2}
